[
    {
        "_id": "b-100",
        "_parentId": "a-100",
        "_type": "block",
        "_classes": "",
        "title": "b-100",
        "displayTitle": "",
        "body": "",
        "_trackingId": 1
    },
    {
        "_id": "b-110",
        "_parentId": "a-100",
        "_type": "block",
        "_classes": "",
        "title": "b-110",
        "displayTitle": "",
        "body": "",
        "_trackingId": 46
    },
    {
        "_id": "b-120",
        "_parentId": "a-100",
        "_type": "block",
        "_classes": "",
        "title": "b-120",
        "displayTitle": "",
        "body": "",
        "_trackingId": 47
    },
    {
        "_id": "b-199",
        "_parentId": "a-100",
        "_type": "block",
        "_classes": "",
        "title": "b-120",
        "displayTitle": "",
        "body": "",
        "_trackingId": 48
    },
    {
        "_id": "b-200",
        "_parentId": "a-200",
        "_type": "block",
        "_classes": "",
        "title": "b-200",
        "displayTitle": "",
        "body": "",
        "_trackingId": 49
    },
    {
        "_id": "b-210",
        "_parentId": "a-200",
        "_type": "block",
        "_classes": "",
        "title": "b-210",
        "displayTitle": "",
        "body": "",
        "_trackingId": 50
    },
    {
        "_id": "b-220",
        "_parentId": "a-200",
        "_type": "block",
        "_classes": "",
        "title": "b-210",
        "displayTitle": "",
        "body": "",
        "_trackingId": 51
    },
    {
        "_id": "b-299",
        "_parentId": "a-200",
        "_type": "block",
        "_classes": "",
        "title": "b-299",
        "displayTitle": "",
        "body": "",
        "_trackingId": 52
    },
    {
        "_id": "b-300",
        "_parentId": "a-300",
        "_type": "block",
        "_classes": "",
        "title": "b-300",
        "displayTitle": "",
        "body": "",
        "_trackingId": 53
    },
    {
        "_id": "b-310",
        "_parentId": "a-300",
        "_type": "block",
        "_classes": "",
        "title": "b-310",
        "displayTitle": "",
        "body": "",
        "_trackingId": 54
    },
    {
        "_id": "b-399",
        "_parentId": "a-300",
        "_type": "block",
        "_classes": "",
        "title": "b-399",
        "displayTitle": "",
        "body": "",
        "_trackingId": 55
    },
    {
        "_id": "b-400",
        "_parentId": "a-400",
        "_type": "block",
        "_classes": "",
        "title": "b-400",
        "displayTitle": "",
        "body": "",
        "_trackingId": 56
    },
    {
        "_id": "b-410",
        "_parentId": "a-400",
        "_type": "block",
        "_classes": "",
        "title": "b-410",
        "displayTitle": "",
        "body": "",
        "_trackingId": 57
    },
    {
        "_id": "b-420",
        "_parentId": "a-400",
        "_type": "block",
        "_classes": "",
        "title": "b-420",
        "displayTitle": "",
        "body": "",
        "_trackingId": 58
    },
    {
        "_id": "b-430",
        "_parentId": "a-400",
        "_type": "block",
        "_classes": "",
        "title": "b-430",
        "displayTitle": "",
        "body": "",
        "_trackingId": 59
    },
    {
        "_id": "b-440",
        "_parentId": "a-400",
        "_type": "block",
        "_classes": "",
        "title": "b-440",
        "displayTitle": "",
        "body": "",
        "_trackingId": 60
    },
    {
        "_id": "b-450",
        "_parentId": "a-400",
        "_type": "block",
        "_classes": "",
        "title": "b-450",
        "displayTitle": "",
        "body": "",
        "_trackingId": 61
    },
    {
        "_id": "b-460",
        "_parentId": "a-400",
        "_type": "block",
        "_classes": "",
        "title": "b-460",
        "displayTitle": "",
        "body": "",
        "_trackingId": 62
    },
    {
        "_id": "b-470",
        "_parentId": "a-400",
        "_type": "block",
        "_classes": "",
        "title": "b-470",
        "displayTitle": "",
        "body": "",
        "_trackingId": 63
    },
    {
        "_id": "b-480",
        "_parentId": "a-400",
        "_type": "block",
        "_classes": "",
        "title": "b-480",
        "displayTitle": "",
        "body": "",
        "_trackingId": 64
    },
    {
        "_id": "b-499",
        "_parentId": "a-400",
        "_type": "block",
        "_classes": "",
        "title": "b-499",
        "displayTitle": "",
        "body": "",
        "_trackingId": 66
    },
    {
        "_id": "b-500",
        "_parentId": "a-500",
        "_type": "block",
        "_classes": "",
        "title": "b-500",
        "displayTitle": "",
        "body": "",
        "_trackingId": 67
    },
    {
        "_id": "b-510",
        "_parentId": "a-500",
        "_type": "block",
        "_classes": "",
        "title": "b-510",
        "displayTitle": "",
        "body": "",
        "_trackingId": 68
    },
    {
        "_id": "b-520",
        "_parentId": "a-500",
        "_type": "block",
        "_classes": "",
        "title": "b-520",
        "displayTitle": "",
        "body": "",
        "_trackingId": 69
    },
    {
        "_id": "b-599",
        "_parentId": "a-500",
        "_type": "block",
        "_classes": "",
        "title": "b-599",
        "displayTitle": "",
        "body": "",
        "_trackingId": 70
    }
]